G04 Layer_Physical_Order=1*
G04 Layer_Color=255*
%FSAX44Y44*%
%MOMM*%
G71*
G01*
G75*
G04:AMPARAMS|DCode=10|XSize=1.2mm|YSize=0.8mm|CornerRadius=0.2mm|HoleSize=0mm|Usage=FLASHONLY|Rotation=0.000|XOffset=0mm|YOffset=0mm|HoleType=Round|Shape=RoundedRectangle|*
%AMROUNDEDRECTD10*
21,1,1.2000,0.4000,0,0,0.0*
21,1,0.8000,0.8000,0,0,0.0*
1,1,0.4000,0.4000,-0.2000*
1,1,0.4000,-0.4000,-0.2000*
1,1,0.4000,-0.4000,0.2000*
1,1,0.4000,0.4000,0.2000*
%
%ADD10ROUNDEDRECTD10*%
%ADD11P,1.0824X8X202.5*%
%ADD12R,1.0000X2.3000*%
%ADD13R,1.2000X1.2000*%
%ADD14R,1.2000X3.5000*%
%ADD15R,1.0000X1.7000*%
%ADD16R,0.9000X0.8000*%
%ADD17C,1.0000*%
%ADD18O,0.5500X1.6500*%
%ADD19O,1.6500X0.5500*%
%ADD20R,1.8000X0.9000*%
%ADD21R,0.8000X0.9000*%
%ADD22R,1.4000X0.8000*%
%ADD23R,0.9500X1.4000*%
%ADD24R,1.4000X0.9500*%
%ADD25C,0.8000*%
%ADD26C,1.0000*%
%ADD27C,0.3000*%
%ADD28C,0.3500*%
%ADD29C,2.0000*%
%ADD30C,0.5000*%
%ADD31C,0.4000*%
%ADD32C,0.2000*%
%ADD33R,1.5000X1.5000*%
%ADD34C,1.5000*%
%ADD35O,2.0000X1.0000*%
%ADD36O,2.0000X1.0000*%
G36*
X00077000Y00081000D02*
X00004588D01*
Y00097000D01*
X00077000D01*
X00077000Y00081000D01*
D02*
G37*
G36*
X00123000Y00045000D02*
Y00017590D01*
X00122922Y00017000D01*
X00123000Y00016410D01*
Y00005000D01*
X00101000D01*
X00083000Y00023000D01*
Y00030000D01*
X00079000Y00034000D01*
X00066000D01*
Y00046000D01*
X00079000D01*
X00083000Y00050000D01*
X00083000Y00057000D01*
X00091000Y00065000D01*
X00103000Y00065000D01*
X00123000Y00045000D01*
D02*
G37*
G36*
X00031000Y00074000D02*
X00036000Y00069000D01*
X00036000Y00010000D01*
X00031000Y00005000D01*
X00007000Y00005000D01*
X00004588Y00007412D01*
Y00071588D01*
X00007000Y00074000D01*
X00031000Y00074000D01*
D02*
G37*
G36*
X00077000Y00110000D02*
X00004588D01*
Y00134000D01*
X00077000D01*
Y00110000D01*
D02*
G37*
G36*
X00165000Y00162102D02*
X00165000Y00148000D01*
X00163000Y00146000D01*
X00094000Y00146000D01*
X00086000Y00154000D01*
X00086000Y00163000D01*
X00164102Y00163000D01*
X00165000Y00162102D01*
D02*
G37*
G36*
X00077000Y00146000D02*
X00004588D01*
Y00163000D01*
X00077000D01*
X00077000Y00146000D01*
D02*
G37*
G36*
X00136341Y00134000D02*
X00136827Y00132827D01*
X00121000Y00117000D01*
X00087000Y00117000D01*
X00086000Y00118000D01*
X00086000Y00134000D01*
X00136341Y00134000D01*
D02*
G37*
D10*
X00184560Y00066350D02*
D03*
X00184560Y00053650D02*
D03*
X00247440Y00053650D02*
D03*
Y00066350D02*
D03*
X00246440Y00083650D02*
D03*
X00246440Y00096350D02*
D03*
X00183560Y00096350D02*
D03*
X00183560Y00083650D02*
D03*
D11*
X00300000Y00125000D02*
D03*
X00270000Y00079000D02*
D03*
X00272000Y00106000D02*
D03*
X00401000Y00089000D02*
D03*
X00196000Y00031000D02*
D03*
D12*
X00223000Y00186000D02*
D03*
X00243000D02*
D03*
X00275000D02*
D03*
X00295000D02*
D03*
X00315000D02*
D03*
X00335000D02*
D03*
X00355000D02*
D03*
X00375000D02*
D03*
X00395000D02*
D03*
X00415000D02*
D03*
D13*
X00072000Y00017000D02*
D03*
Y00040000D02*
D03*
X00072000Y00063000D02*
D03*
X00149000Y00017000D02*
D03*
Y00040000D02*
D03*
Y00063000D02*
D03*
D14*
X00012000Y00040000D02*
D03*
X00089000Y00040000D02*
D03*
D15*
X00165500Y00015000D02*
D03*
X00198500Y00015000D02*
D03*
D16*
X00257500Y00028500D02*
D03*
Y00009500D02*
D03*
X00237500Y00019000D02*
D03*
X00166000Y00101500D02*
D03*
Y00088500D02*
D03*
X00147000Y00095500D02*
D03*
Y00082500D02*
D03*
X00270000Y00053500D02*
D03*
Y00066500D02*
D03*
X00304000Y00026500D02*
D03*
Y00013500D02*
D03*
X00414000Y00075500D02*
D03*
Y00088500D02*
D03*
X00379000Y00157500D02*
D03*
Y00144500D02*
D03*
X00396000Y00157500D02*
D03*
Y00144500D02*
D03*
X00338000Y00157500D02*
D03*
Y00144500D02*
D03*
X00355000Y00157500D02*
D03*
Y00144500D02*
D03*
X00304000Y00157500D02*
D03*
Y00144500D02*
D03*
D17*
X00092000Y00102000D02*
D03*
X00276000Y00153000D02*
D03*
X00388000Y00040000D02*
D03*
X00158000Y00109000D02*
D03*
X00325000Y00061000D02*
D03*
X00026000Y00026750D02*
D03*
X00283000Y00090000D02*
D03*
X00342000Y00061000D02*
D03*
X00181000Y00150000D02*
D03*
X00414000Y00039000D02*
D03*
X00409000Y00136000D02*
D03*
X00318000Y00096000D02*
D03*
X00122000Y00069000D02*
D03*
X00400000Y00103000D02*
D03*
X00317297Y00109000D02*
D03*
X00344000Y00093000D02*
D03*
Y00107000D02*
D03*
X00103000Y00025000D02*
D03*
Y00054000D02*
D03*
Y00040000D02*
D03*
X00026000Y00039500D02*
D03*
X00018000Y00122000D02*
D03*
X00042500D02*
D03*
X00067000D02*
D03*
X00043000Y00151000D02*
D03*
X00018000D02*
D03*
X00068000D02*
D03*
X00018000Y00092000D02*
D03*
X00043000D02*
D03*
X00068000D02*
D03*
X00097000Y00151000D02*
D03*
X00121500D02*
D03*
X00146000D02*
D03*
X00054750Y00122000D02*
D03*
X00030250D02*
D03*
X00012000Y00065000D02*
D03*
Y00014000D02*
D03*
X00026000D02*
D03*
Y00052250D02*
D03*
Y00065000D02*
D03*
X00132000Y00017000D02*
D03*
X00097000Y00122000D02*
D03*
X00119000D02*
D03*
X00108667D02*
D03*
X00284000Y00063000D02*
D03*
X00247000Y00075000D02*
D03*
X00109250Y00151000D02*
D03*
X00133750D02*
D03*
X00055500D02*
D03*
X00030500D02*
D03*
Y00092000D02*
D03*
X00055500D02*
D03*
X00168000Y00079000D02*
D03*
D18*
X00370000Y00041000D02*
D03*
X00362000D02*
D03*
X00354000D02*
D03*
X00346000D02*
D03*
X00338000D02*
D03*
X00330000D02*
D03*
X00322000D02*
D03*
X00314000D02*
D03*
Y00125000D02*
D03*
X00322000D02*
D03*
X00330000D02*
D03*
X00338000D02*
D03*
X00346000D02*
D03*
X00354000D02*
D03*
X00362000D02*
D03*
X00370000D02*
D03*
D19*
X00300000Y00055000D02*
D03*
Y00063000D02*
D03*
Y00071000D02*
D03*
Y00079000D02*
D03*
Y00087000D02*
D03*
Y00095000D02*
D03*
Y00103000D02*
D03*
Y00111000D02*
D03*
X00384000D02*
D03*
Y00103000D02*
D03*
Y00095000D02*
D03*
Y00087000D02*
D03*
Y00079000D02*
D03*
Y00071000D02*
D03*
Y00063000D02*
D03*
Y00055000D02*
D03*
D20*
X00145000Y00129500D02*
D03*
Y00158500D02*
D03*
X00120000Y00129500D02*
D03*
Y00158500D02*
D03*
X00095000Y00129500D02*
D03*
Y00158500D02*
D03*
X00068000Y00129500D02*
D03*
Y00158500D02*
D03*
X00043000Y00129500D02*
D03*
Y00158500D02*
D03*
X00018000Y00129500D02*
D03*
Y00158500D02*
D03*
X00043000Y00085500D02*
D03*
Y00114500D02*
D03*
X00068000Y00085500D02*
D03*
Y00114500D02*
D03*
X00018000Y00085500D02*
D03*
Y00114500D02*
D03*
D21*
X00120500Y00103000D02*
D03*
X00111000Y00083000D02*
D03*
X00130000D02*
D03*
X00273500Y00124000D02*
D03*
X00286500D02*
D03*
X00414500Y00057000D02*
D03*
X00401500D02*
D03*
D22*
X00171500Y00151700D02*
D03*
Y00126300D02*
D03*
X00228500D02*
D03*
Y00151700D02*
D03*
D23*
X00165750Y00037000D02*
D03*
X00184250Y00037000D02*
D03*
D24*
X00321000Y00141750D02*
D03*
Y00160250D02*
D03*
X00412000Y00121250D02*
D03*
Y00102750D02*
D03*
D25*
Y00123000D02*
Y00127250D01*
X00158000Y00109000D02*
X00161000D01*
X00158000D02*
X00159000D01*
X00166000Y00102000D01*
X00161000Y00109000D02*
X00171000Y00119000D01*
X00171000Y00126000D01*
X00273000Y00013300D02*
X00303800D01*
X00304000Y00013500D01*
X00269200Y00009500D02*
X00273000Y00013300D01*
X00293000Y00040000D02*
X00303500Y00029500D01*
X00273000Y00040000D02*
X00293000D01*
X00303500Y00027500D02*
Y00029500D01*
X00338000Y00157500D02*
X00355000D01*
X00271000Y00040000D02*
Y00041000D01*
X00304500Y00157500D02*
X00338000D01*
X00355000D02*
X00366000D01*
X00295000Y00167000D02*
Y00185000D01*
X00332300Y00013300D02*
X00334000Y00015000D01*
X00414000Y00039000D02*
Y00045000D01*
X00415000Y00046000D01*
Y00056500D01*
X00414500Y00057000D02*
X00415000Y00056500D01*
X00382900Y00013100D02*
X00384800Y00015000D01*
X00300000Y00124000D02*
X00300000D01*
X00257500Y00009500D02*
X00269200D01*
X00414500Y00057000D02*
Y00075500D01*
X00366000Y00157500D02*
X00392000D01*
X00295000Y00167000D02*
X00304500Y00157500D01*
X00145000Y00158500D02*
X00145000Y00158500D01*
X00095000Y00129500D02*
X00095000Y00129500D01*
X00145000D01*
X00166000Y00101500D02*
Y00102000D01*
X00122000Y00069000D02*
X00128000Y00063000D01*
X00149000D01*
X00165500Y00015000D02*
Y00036750D01*
X00165750Y00037000D01*
Y00054250D01*
X00270000Y00041000D02*
Y00052500D01*
X00149000Y00063000D02*
X00157000D01*
X00165750Y00054250D01*
D26*
X00409000Y00136000D02*
X00412000Y00133000D01*
Y00127250D02*
Y00133000D01*
X00018000Y00158500D02*
X00068000D01*
X00145000D02*
X00163700D01*
X00169100Y00153100D01*
X00095000Y00158500D02*
X00145000D01*
X00068000Y00158500D02*
X00068000Y00158500D01*
X00184250Y00029250D02*
X00198500Y00015000D01*
X00184250Y00029250D02*
Y00037000D01*
X00103000Y00040000D02*
X00149000D01*
D27*
X00400500Y00088500D02*
X00401000Y00089000D01*
X00399000Y00087000D02*
X00400500Y00088500D01*
X00414000D01*
X00223500Y00149700D02*
X00225000Y00151200D01*
X00354000Y00043000D02*
Y00064000D01*
X00362000Y00043000D02*
Y00066000D01*
X00370000Y00127000D02*
Y00135000D01*
X00314000Y00043000D02*
Y00054000D01*
X00346000Y00043000D02*
Y00044000D01*
Y00056000D01*
X00314000Y00114000D02*
Y00128000D01*
X00330000D02*
Y00137000D01*
Y00101000D02*
Y00128000D01*
X00346000Y00114000D02*
Y00128000D01*
Y00137000D01*
X00354000Y00116000D02*
Y00144000D01*
X00406000Y00149000D02*
Y00164000D01*
X00401500Y00144500D02*
X00406000Y00149000D01*
X00399500Y00144500D02*
X00401500D01*
X00370000Y00101000D02*
X00376000Y00095000D01*
X00311000Y00063000D02*
X00319000Y00071000D01*
X00341000Y00142000D02*
X00346000Y00137000D01*
X00341000Y00142000D02*
Y00144500D01*
X00362000Y00136000D02*
X00366000Y00140000D01*
X00362000Y00128000D02*
Y00136000D01*
X00322000Y00032000D02*
Y00044000D01*
X00359400Y00015000D02*
Y00015600D01*
X00320000Y00060000D02*
X00325000D01*
X00314000Y00054000D02*
X00320000Y00060000D01*
X00286000Y00123500D02*
X00287500Y00125000D01*
X00286000Y00111000D02*
Y00123500D01*
X00283750Y00108750D02*
X00286000Y00111000D01*
X00347000Y00071000D02*
X00354000Y00064000D01*
X00319000Y00071000D02*
X00347000D01*
X00354000Y00116000D02*
X00355000Y00115000D01*
X00330000Y00101000D02*
X00336000Y00095000D01*
X00341000Y00107000D02*
X00343000Y00109000D01*
Y00111000D02*
X00346000Y00114000D01*
X00342000Y00060000D02*
X00346000Y00056000D01*
X00243000Y00185000D02*
X00245300Y00182700D01*
X00324000Y00143000D02*
X00330000Y00137000D01*
X00324000Y00143000D02*
Y00144500D01*
X00370000Y00135000D02*
X00378500Y00143500D01*
X00410200Y00015000D02*
Y00018800D01*
X00401500Y00027500D02*
X00410200Y00018800D01*
X00401500Y00027500D02*
Y00057000D01*
X00315000Y00177000D02*
Y00185000D01*
X00407750Y00105000D02*
X00408000Y00104750D01*
X00393000Y00113000D02*
Y00143500D01*
X00370000Y00101000D02*
Y00127000D01*
X00370000Y00127000D02*
X00370000Y00127000D01*
X00246440Y00051650D02*
X00251650D01*
X00300000Y00124000D02*
X00300000Y00124000D01*
X00362000Y00088000D02*
Y00127000D01*
X00336000Y00095000D02*
X00344000D01*
X00343000Y00109000D02*
Y00111000D01*
X00307000Y00135000D02*
Y00144500D01*
Y00135000D02*
X00314000Y00128000D01*
X00315000Y00177000D02*
X00322500Y00169500D01*
X00400500D01*
X00406000Y00164000D01*
X00376000Y00095000D02*
X00384000D01*
X00399500Y00055000D02*
X00401500Y00057000D01*
X00322000Y00032000D02*
X00326000Y00028000D01*
X00347000D01*
X00359400Y00015600D01*
X00310000Y00071000D02*
X00317000Y00078000D01*
X00319000Y00109000D02*
X00320000Y00108000D01*
X00319000Y00109000D02*
X00320000Y00108000D01*
X00317297Y00109000D02*
X00319000D01*
X00314000Y00114000D02*
X00317297Y00110703D01*
Y00109000D02*
Y00110703D01*
X00319000Y00094000D02*
X00323000D01*
X00350000Y00085000D02*
X00355000Y00090000D01*
Y00115000D01*
X00340065Y00083500D02*
X00347935D01*
X00349435Y00085000D01*
X00350000D01*
X00317000Y00078000D02*
X00337080D01*
X00337580Y00077500D01*
X00350420D01*
X00350460Y00077540D01*
X00350460D01*
X00362000Y00066000D01*
X00323000Y00094000D02*
X00333000Y00084000D01*
X00339565D01*
X00340065Y00083500D01*
X00300000Y00063000D02*
X00311000D01*
X00300000Y00071000D02*
X00310000D01*
X00284000Y00063000D02*
X00300000D01*
X00283750Y00089000D02*
Y00108750D01*
X00290000Y00071000D02*
X00300000D01*
X00282000Y00079000D02*
X00290000Y00071000D01*
X00270000Y00079000D02*
X00282000D01*
X00384000D02*
X00396136D01*
X00399636Y00075500D01*
X00371000Y00079000D02*
X00384000D01*
X00362000Y00088000D02*
X00371000Y00079000D01*
X00384000Y00087000D02*
X00399000D01*
X00384000Y00103000D02*
X00400000D01*
X00384000Y00095000D02*
X00392000D01*
X00400000Y00103000D01*
X00411750D01*
X00412000Y00102750D01*
X00384000Y00111000D02*
X00391000D01*
X00393000Y00113000D01*
X00384000Y00055000D02*
X00399500D01*
X00247440Y00066350D02*
Y00074560D01*
X00247000Y00075000D02*
X00247440Y00074560D01*
X00246440Y00064350D02*
X00246887Y00066467D01*
X00247000Y00067000D01*
D28*
X00053000Y00085500D02*
X00068000D01*
X00053000Y00024000D02*
Y00085500D01*
X00111000Y00083000D02*
X00121000Y00093000D01*
X00166000Y00088500D02*
X00168500D01*
X00176350Y00096350D01*
X00183560D01*
X00121000Y00093000D02*
X00142000D01*
X00144500Y00095500D01*
X00147000D01*
Y00082500D02*
X00150500D01*
X00166650Y00066350D02*
X00184560D01*
X00116500Y00099000D02*
X00120500Y00103000D01*
X00053000Y00024000D02*
X00060000Y00017000D01*
X00072000D01*
X00095782Y00083000D02*
X00111782Y00099000D01*
X00116500D01*
X00068000Y00085500D02*
X00070500Y00083000D01*
X00095782D01*
X00068000Y00156500D02*
Y00158500D01*
Y00156500D02*
X00095000Y00129500D01*
X00150500Y00082500D02*
X00166650Y00066350D01*
D29*
X00018000Y00156000D02*
Y00183000D01*
D30*
X00223000Y00185000D02*
X00225000Y00183000D01*
Y00151200D02*
Y00183000D01*
X00245300Y00139300D02*
Y00182700D01*
X00230300Y00124300D02*
X00245300Y00139300D01*
X00223500Y00124300D02*
X00230300D01*
X00237000Y00036000D02*
X00242000Y00041000D01*
X00237000Y00020000D02*
Y00036000D01*
X00300000Y00114500D02*
Y00124000D01*
X00183560Y00081650D02*
X00192350D01*
X00399636Y00075500D02*
X00413000D01*
X00287500Y00125000D02*
X00299000D01*
X00260000Y00026000D02*
X00273000D01*
X00257500Y00028500D02*
X00260000Y00026000D01*
X00414000Y00075500D02*
X00414500D01*
X00270000Y00066500D02*
Y00078000D01*
X00192350Y00081650D02*
X00196750Y00077250D01*
X00180700Y00149700D02*
X00181000Y00150000D01*
X00072000Y00063000D02*
X00076000D01*
X00132000Y00017000D02*
X00149000D01*
X00189650Y00053650D02*
X00196750Y00060750D01*
Y00077250D01*
X00184560Y00053650D02*
X00189650D01*
X00184250Y00037000D02*
Y00053340D01*
X00184560Y00053650D01*
X00130000Y00083000D02*
X00146500D01*
X00147000Y00082500D01*
X00246440Y00075560D02*
Y00083650D01*
Y00075560D02*
X00247000Y00075000D01*
X00242000Y00041000D02*
X00273000D01*
X00076000Y00063000D02*
X00087750Y00074750D01*
X00099003D01*
X00107253Y00083000D01*
X00111000D01*
X00166000Y00088500D02*
X00168000Y00086500D01*
Y00079000D02*
Y00086500D01*
D31*
X00260500Y00105000D02*
Y00111107D01*
Y00097500D02*
Y00105000D01*
X00261500Y00106000D01*
X00272000D01*
X00366000Y00141000D02*
Y00157500D01*
Y00158500D01*
X00251650Y00051650D02*
X00266500Y00066500D01*
X00246440Y00095350D02*
X00258350D01*
X00273393Y00124000D02*
X00273500D01*
X00260500Y00111107D02*
X00273393Y00124000D01*
X00258350Y00095350D02*
X00260500Y00097500D01*
D32*
X00000000Y00000000D02*
X00050000D01*
X-00000000Y00050000D02*
X00000000Y00000000D01*
X00375000Y00200000D02*
X00425000Y00200000D01*
X00425000Y00132500D01*
D33*
X00334000Y00015000D02*
D03*
D34*
X00359400D02*
D03*
X00384800D02*
D03*
X00410200D02*
D03*
D35*
X00279000Y00014000D02*
D03*
Y00027000D02*
D03*
D36*
Y00040000D02*
D03*
M02*
