%FSDAX44Y44*%
%MOMM*%
%SFA1B1*%

%IPPOS*%
%AMD99*
4,1,8,0.398780,0.398780,-0.398780,0.398780,-0.599440,0.200660,-0.599440,-0.200660,-0.398780,-0.398780,0.398780,-0.398780,0.599440,-0.200660,0.599440,0.200660,0.398780,0.398780,0.0*
1,1,0.400000,0.398780,0.200660*
1,1,0.400000,-0.398780,0.200660*
1,1,0.400000,-0.398780,-0.200660*
1,1,0.400000,0.398780,-0.200660*
%
%ADD12R,1.199998X1.199998*%
%ADD14R,0.999998X1.699997*%
%ADD15R,0.899998X0.799998*%
%ADD17O,0.549999X1.649997*%
%ADD18O,1.649997X0.549999*%
%ADD19R,1.799996X0.899998*%
%ADD20R,0.949998X1.399997*%
%ADD21R,1.399997X0.949998*%
%ADD70R,0.799998X0.899998*%
%ADD71R,1.399997X0.799998*%
G04~CAMADD=99~8~0.0~0.0~472.4~315.0~78.7~0.0~15~0.0~0.0~0.0~0.0~0~0.0~0.0~0.0~0.0~0~0.0~0.0~0.0~0.0~472.4~315.0*
%ADD99D99*%
%ADD100R,0.999998X2.299995*%
%ADD101R,1.199998X1.599997*%
%LNdali_interface_3.0_(dali_interface-p03f-v00)_sngl_gerber-0-1*%
%LPD*%
G54D99*
X00184562Y00116357D03*
Y00103657D03*
X00247442D03*
Y00116357D03*
X00246442Y00133657D03*
Y00146357D03*
X00183562D03*
Y00133657D03*
G54D100*
X00223002Y00236007D03*
X00243002D03*
G54D12*
X00072002Y00067007D03*
Y00090007D03*
Y00113007D03*
X00149002Y00067007D03*
Y00090007D03*
Y00113007D03*
G54D14*
X00165502Y00065007D03*
X00198502D03*
G54D15*
X00257502Y00078507D03*
Y00059507D03*
X00237502Y00069007D03*
X00166002Y00151507D03*
Y00138507D03*
X00147002Y00145507D03*
Y00132507D03*
X00270002Y00103507D03*
Y00116507D03*
X00304002Y00076507D03*
Y00063507D03*
X00414002Y00125507D03*
Y00138507D03*
X00379002Y00207507D03*
Y00194507D03*
X00396002Y00207507D03*
Y00194507D03*
X00338002Y00207507D03*
Y00194507D03*
X00355002Y00207507D03*
Y00194507D03*
X00304002Y00207507D03*
Y00194507D03*
G54D17*
X00370002Y00091007D03*
X00362002D03*
X00354002D03*
X00346002D03*
X00338002D03*
X00330002D03*
X00322002D03*
X00314002D03*
Y00175007D03*
X00322002D03*
X00330002D03*
X00338002D03*
X00346002D03*
X00354002D03*
X00362002D03*
X00370002D03*
G54D18*
X00300002Y00105007D03*
Y00113007D03*
Y00121007D03*
Y00129007D03*
Y00137007D03*
Y00145007D03*
Y00153007D03*
Y00161007D03*
X00384002D03*
Y00153007D03*
Y00145007D03*
Y00137007D03*
Y00129007D03*
Y00121007D03*
Y00113007D03*
Y00105007D03*
G54D19*
X00145002Y00179507D03*
Y00208507D03*
X00120002Y00179507D03*
Y00208507D03*
X00095002Y00179507D03*
Y00208507D03*
X00068002Y00179507D03*
Y00208507D03*
X00043002Y00179507D03*
Y00208507D03*
X00018002Y00179507D03*
Y00208507D03*
X00043002Y00135507D03*
Y00164507D03*
X00068002Y00135507D03*
Y00164507D03*
X00018002Y00135507D03*
Y00164507D03*
G54D70*
X00120502Y00153007D03*
X00111002Y00133007D03*
X00130002D03*
X00273502Y00174007D03*
X00286502D03*
X00414502Y00107007D03*
X00401502D03*
G54D71*
X00171502Y00201707D03*
Y00176307D03*
X00228502D03*
Y00201707D03*
G54D20*
X00165752Y00087007D03*
X00184252D03*
G54D21*
X00321002Y00191757D03*
Y00210257D03*
X00412002Y00171257D03*
Y00152757D03*
G54D101*
X00012002Y00080507D03*
X00089002D03*
X00012001Y00099507D03*
X00089002D03*
G54D99*
X00665421Y00183579D03*
Y00196279D03*
X00602541D03*
Y00183579D03*
X00603541Y00166279D03*
Y00153579D03*
X00666421D03*
Y00166279D03*
G54D100*
X00626981Y00063929D03*
X00606981D03*
G54D12*
X00777981Y00232929D03*
Y00209929D03*
Y00186929D03*
X00700981Y00232929D03*
Y00209929D03*
Y00186929D03*
G54D14*
X00684481Y00234929D03*
X00651481D03*
G54D15*
X00592481Y00221429D03*
Y00240429D03*
X00612481Y00230929D03*
X00683981Y00148429D03*
Y00161429D03*
X00702981Y00154429D03*
Y00167429D03*
X00579981Y00196429D03*
Y00183429D03*
X00545981Y00223429D03*
Y00236429D03*
X00435981Y00174429D03*
Y00161429D03*
X00470981Y00092429D03*
Y00105429D03*
X00453981Y00092429D03*
Y00105429D03*
X00511981Y00092429D03*
Y00105429D03*
X00494981Y00092429D03*
Y00105429D03*
X00545981Y00092429D03*
Y00105429D03*
G54D17*
X00479981Y00208929D03*
X00487981D03*
X00495981D03*
X00503981D03*
X00511981D03*
X00519981D03*
X00527981D03*
X00535981D03*
Y00124929D03*
X00527981D03*
X00519981D03*
X00511981D03*
X00503981D03*
X00495981D03*
X00487981D03*
X00479981D03*
G54D18*
X00549981Y00194929D03*
Y00186929D03*
Y00178929D03*
Y00170929D03*
Y00162929D03*
Y00154929D03*
Y00146929D03*
Y00138929D03*
X00465981D03*
Y00146929D03*
Y00154929D03*
Y00162929D03*
Y00170929D03*
Y00178929D03*
Y00186929D03*
Y00194929D03*
G54D19*
X00704981Y00120429D03*
Y00091429D03*
X00729981Y00120429D03*
Y00091429D03*
X00754981Y00120429D03*
Y00091429D03*
X00781981Y00120429D03*
Y00091429D03*
X00806981Y00120429D03*
Y00091429D03*
X00831981Y00120429D03*
Y00091429D03*
X00806981Y00164429D03*
Y00135429D03*
X00781981Y00164429D03*
Y00135429D03*
X00831981Y00164429D03*
Y00135429D03*
G54D70*
X00729481Y00146929D03*
X00738981Y00166929D03*
X00719981D03*
X00576481Y00125929D03*
X00563481D03*
X00435481Y00192929D03*
X00448481D03*
G54D71*
X00678481Y00098229D03*
Y00123629D03*
X00621481D03*
Y00098229D03*
G54D20*
X00684231Y00212929D03*
X00665731D03*
G54D21*
X00528981Y00108179D03*
Y00089679D03*
X00437981Y00128679D03*
Y00147179D03*
G54D101*
X00837981Y00219429D03*
X00760981D03*
X00837982Y00200429D03*
X00760981D03*
G54D99*
X01034562Y00116357D03*
Y00103657D03*
X01097442D03*
Y00116357D03*
X01096442Y00133657D03*
Y00146357D03*
X01033562D03*
Y00133657D03*
G54D100*
X01073002Y00236007D03*
X01093002D03*
G54D12*
X00922002Y00067007D03*
Y00090007D03*
Y00113007D03*
X00999002Y00067007D03*
Y00090007D03*
Y00113007D03*
G54D14*
X01015502Y00065007D03*
X01048502D03*
G54D15*
X01107502Y00078507D03*
Y00059507D03*
X01087502Y00069007D03*
X01016002Y00151507D03*
Y00138507D03*
X00997002Y00145507D03*
Y00132507D03*
X01120002Y00103507D03*
Y00116507D03*
X01154002Y00076507D03*
Y00063507D03*
X01264002Y00125507D03*
Y00138507D03*
X01229002Y00207507D03*
Y00194507D03*
X01246002Y00207507D03*
Y00194507D03*
X01188002Y00207507D03*
Y00194507D03*
X01205002Y00207507D03*
Y00194507D03*
X01154002Y00207507D03*
Y00194507D03*
G54D17*
X01220002Y00091007D03*
X01212002D03*
X01204002D03*
X01196002D03*
X01188002D03*
X01180002D03*
X01172002D03*
X01164002D03*
Y00175007D03*
X01172002D03*
X01180002D03*
X01188002D03*
X01196002D03*
X01204002D03*
X01212002D03*
X01220002D03*
G54D18*
X01150002Y00105007D03*
Y00113007D03*
Y00121007D03*
Y00129007D03*
Y00137007D03*
Y00145007D03*
Y00153007D03*
Y00161007D03*
X01234002D03*
Y00153007D03*
Y00145007D03*
Y00137007D03*
Y00129007D03*
Y00121007D03*
Y00113007D03*
Y00105007D03*
G54D19*
X00995002Y00179507D03*
Y00208507D03*
X00970002Y00179507D03*
Y00208507D03*
X00945002Y00179507D03*
Y00208507D03*
X00918002Y00179507D03*
Y00208507D03*
X00893002Y00179507D03*
Y00208507D03*
X00868002Y00179507D03*
Y00208507D03*
X00893002Y00135507D03*
Y00164507D03*
X00918002Y00135507D03*
Y00164507D03*
X00868002Y00135507D03*
Y00164507D03*
G54D70*
X00970502Y00153007D03*
X00961002Y00133007D03*
X00980002D03*
X01123502Y00174007D03*
X01136502D03*
X01264502Y00107007D03*
X01251502D03*
G54D71*
X01021502Y00201707D03*
Y00176307D03*
X01078502D03*
Y00201707D03*
G54D20*
X01015752Y00087007D03*
X01034252D03*
G54D21*
X01171002Y00191757D03*
Y00210257D03*
X01262002Y00171257D03*
Y00152757D03*
G54D101*
X00862002Y00080507D03*
X00939002D03*
X00862001Y00099507D03*
X00939002D03*
G54D99*
X01515421Y00183579D03*
Y00196279D03*
X01452541D03*
Y00183579D03*
X01453541Y00166279D03*
Y00153579D03*
X01516421D03*
Y00166279D03*
G54D100*
X01476981Y00063929D03*
X01456981D03*
G54D12*
X01627981Y00232929D03*
Y00209929D03*
Y00186929D03*
X01550981Y00232929D03*
Y00209929D03*
Y00186929D03*
G54D14*
X01534481Y00234929D03*
X01501481D03*
G54D15*
X01442481Y00221429D03*
Y00240429D03*
X01462481Y00230929D03*
X01533981Y00148429D03*
Y00161429D03*
X01552981Y00154429D03*
Y00167429D03*
X01429981Y00196429D03*
Y00183429D03*
X01395981Y00223429D03*
Y00236429D03*
X01285981Y00174429D03*
Y00161429D03*
X01320981Y00092429D03*
Y00105429D03*
X01303981Y00092429D03*
Y00105429D03*
X01361981Y00092429D03*
Y00105429D03*
X01344981Y00092429D03*
Y00105429D03*
X01395981Y00092429D03*
Y00105429D03*
G54D17*
X01329981Y00208929D03*
X01337981D03*
X01345981D03*
X01353981D03*
X01361981D03*
X01369981D03*
X01377981D03*
X01385981D03*
Y00124929D03*
X01377981D03*
X01369981D03*
X01361981D03*
X01353981D03*
X01345981D03*
X01337981D03*
X01329981D03*
G54D18*
X01399981Y00194929D03*
Y00186929D03*
Y00178929D03*
Y00170929D03*
Y00162929D03*
Y00154929D03*
Y00146929D03*
Y00138929D03*
X01315981D03*
Y00146929D03*
Y00154929D03*
Y00162929D03*
Y00170929D03*
Y00178929D03*
Y00186929D03*
Y00194929D03*
G54D19*
X01554981Y00120429D03*
Y00091429D03*
X01579981Y00120429D03*
Y00091429D03*
X01604981Y00120429D03*
Y00091429D03*
X01631981Y00120429D03*
Y00091429D03*
X01656981Y00120429D03*
Y00091429D03*
X01681981Y00120429D03*
Y00091429D03*
X01656981Y00164429D03*
Y00135429D03*
X01631981Y00164429D03*
Y00135429D03*
X01681981Y00164429D03*
Y00135429D03*
G54D70*
X01579481Y00146929D03*
X01588981Y00166929D03*
X01569981D03*
X01426481Y00125929D03*
X01413481D03*
X01285481Y00192929D03*
X01298481D03*
G54D71*
X01528481Y00098229D03*
Y00123629D03*
X01471481D03*
Y00098229D03*
G54D20*
X01534231Y00212929D03*
X01515731D03*
G54D21*
X01378981Y00108179D03*
Y00089679D03*
X01287981Y00128679D03*
Y00147179D03*
G54D101*
X01687981Y00219429D03*
X01610981D03*
X01687982Y00200429D03*
X01610981D03*
G54D99*
X00184562Y00316357D03*
Y00303657D03*
X00247442D03*
Y00316357D03*
X00246442Y00333657D03*
Y00346357D03*
X00183562D03*
Y00333657D03*
G54D100*
X00223002Y00436007D03*
X00243002D03*
G54D12*
X00072002Y00267007D03*
Y00290007D03*
Y00313007D03*
X00149002Y00267007D03*
Y00290007D03*
Y00313007D03*
G54D14*
X00165502Y00265007D03*
X00198502D03*
G54D15*
X00257502Y00278507D03*
Y00259507D03*
X00237502Y00269007D03*
X00166002Y00351507D03*
Y00338507D03*
X00147002Y00345507D03*
Y00332507D03*
X00270002Y00303507D03*
Y00316507D03*
X00304002Y00276507D03*
Y00263507D03*
X00414002Y00325507D03*
Y00338507D03*
X00379002Y00407507D03*
Y00394507D03*
X00396002Y00407507D03*
Y00394507D03*
X00338002Y00407507D03*
Y00394507D03*
X00355002Y00407507D03*
Y00394507D03*
X00304002Y00407507D03*
Y00394507D03*
G54D17*
X00370002Y00291007D03*
X00362002D03*
X00354002D03*
X00346002D03*
X00338002D03*
X00330002D03*
X00322002D03*
X00314002D03*
Y00375007D03*
X00322002D03*
X00330002D03*
X00338002D03*
X00346002D03*
X00354002D03*
X00362002D03*
X00370002D03*
G54D18*
X00300002Y00305007D03*
Y00313007D03*
Y00321007D03*
Y00329007D03*
Y00337007D03*
Y00345007D03*
Y00353007D03*
Y00361007D03*
X00384002D03*
Y00353007D03*
Y00345007D03*
Y00337007D03*
Y00329007D03*
Y00321007D03*
Y00313007D03*
Y00305007D03*
G54D19*
X00145002Y00379507D03*
Y00408507D03*
X00120002Y00379507D03*
Y00408507D03*
X00095002Y00379507D03*
Y00408507D03*
X00068002Y00379507D03*
Y00408507D03*
X00043002Y00379507D03*
Y00408507D03*
X00018002Y00379507D03*
Y00408507D03*
X00043002Y00335507D03*
Y00364507D03*
X00068002Y00335507D03*
Y00364507D03*
X00018002Y00335507D03*
Y00364507D03*
G54D70*
X00120502Y00353007D03*
X00111002Y00333007D03*
X00130002D03*
X00273502Y00374007D03*
X00286502D03*
X00414502Y00307007D03*
X00401502D03*
G54D71*
X00171502Y00401707D03*
Y00376307D03*
X00228502D03*
Y00401707D03*
G54D20*
X00165752Y00287007D03*
X00184252D03*
G54D21*
X00321002Y00391757D03*
Y00410257D03*
X00412002Y00371257D03*
Y00352757D03*
G54D101*
X00012002Y00280507D03*
X00089002D03*
X00012001Y00299507D03*
X00089002D03*
G54D99*
X00665421Y00383579D03*
Y00396279D03*
X00602541D03*
Y00383579D03*
X00603541Y00366279D03*
Y00353579D03*
X00666421D03*
Y00366279D03*
G54D100*
X00626981Y00263929D03*
X00606981D03*
G54D12*
X00777981Y00432929D03*
Y00409929D03*
Y00386929D03*
X00700981Y00432929D03*
Y00409929D03*
Y00386929D03*
G54D14*
X00684481Y00434929D03*
X00651481D03*
G54D15*
X00592481Y00421429D03*
Y00440429D03*
X00683981Y00348429D03*
Y00361429D03*
X00702981Y00354429D03*
Y00367429D03*
X00579981Y00396429D03*
Y00383429D03*
X00545981Y00423429D03*
Y00436429D03*
X00435981Y00374429D03*
Y00361429D03*
X00470981Y00292429D03*
Y00305429D03*
X00453981Y00292429D03*
Y00305429D03*
X00511981Y00292429D03*
Y00305429D03*
X00494981Y00292429D03*
Y00305429D03*
X00545981Y00292429D03*
Y00305429D03*
G54D17*
X00479981Y00408929D03*
X00487981D03*
X00495981D03*
X00503981D03*
X00511981D03*
X00519981D03*
X00527981D03*
X00535981D03*
Y00324929D03*
X00527981D03*
X00519981D03*
X00511981D03*
X00503981D03*
X00495981D03*
X00487981D03*
X00479981D03*
G54D18*
X00549981Y00394929D03*
Y00386929D03*
Y00378929D03*
Y00370929D03*
Y00362929D03*
Y00354929D03*
Y00346929D03*
Y00338929D03*
X00465981D03*
Y00346929D03*
Y00354929D03*
Y00362929D03*
Y00370929D03*
Y00378929D03*
Y00386929D03*
Y00394929D03*
G54D19*
X00704981Y00320429D03*
Y00291429D03*
X00729981Y00320429D03*
Y00291429D03*
X00754981Y00320429D03*
Y00291429D03*
X00781981Y00320429D03*
Y00291429D03*
X00806981Y00320429D03*
Y00291429D03*
X00831981Y00320429D03*
Y00291429D03*
X00806981Y00364429D03*
Y00335429D03*
X00781981Y00364429D03*
Y00335429D03*
X00831981Y00364429D03*
Y00335429D03*
G54D70*
X00729481Y00346929D03*
X00738981Y00366929D03*
X00719981D03*
X00576481Y00325929D03*
X00563481D03*
X00435481Y00392929D03*
X00448481D03*
G54D71*
X00678481Y00298229D03*
Y00323629D03*
X00621481D03*
Y00298229D03*
G54D20*
X00684231Y00412929D03*
X00665731D03*
G54D21*
X00528981Y00308179D03*
Y00289679D03*
X00437981Y00328679D03*
Y00347179D03*
G54D101*
X00837981Y00419429D03*
X00760981D03*
X00837982Y00400429D03*
X00760981D03*
G54D99*
X01034562Y00316357D03*
Y00303657D03*
X01097442D03*
Y00316357D03*
X01096442Y00333657D03*
Y00346357D03*
X01033562D03*
Y00333657D03*
G54D100*
X01073002Y00436007D03*
X01093002D03*
G54D12*
X00922002Y00267007D03*
Y00290007D03*
Y00313007D03*
X00999002Y00267007D03*
Y00290007D03*
Y00313007D03*
G54D14*
X01015502Y00265007D03*
X01048502D03*
G54D15*
X01107502Y00278507D03*
Y00259507D03*
X01087502Y00269007D03*
X01016002Y00351507D03*
Y00338507D03*
X00997002Y00345507D03*
Y00332507D03*
X01120002Y00303507D03*
Y00316507D03*
X01154002Y00276507D03*
Y00263507D03*
X01264002Y00325507D03*
Y00338507D03*
X01229002Y00407507D03*
Y00394507D03*
X01246002Y00407507D03*
Y00394507D03*
X01188002Y00407507D03*
Y00394507D03*
X01205002Y00407507D03*
Y00394507D03*
X01154002Y00407507D03*
Y00394507D03*
G54D17*
X01220002Y00291007D03*
X01212002D03*
X01204002D03*
X01196002D03*
X01188002D03*
X01180002D03*
X01172002D03*
X01164002D03*
Y00375007D03*
X01172002D03*
X01180002D03*
X01188002D03*
X01196002D03*
X01204002D03*
X01212002D03*
X01220002D03*
G54D18*
X01150002Y00305007D03*
Y00313007D03*
Y00321007D03*
Y00329007D03*
Y00337007D03*
Y00345007D03*
Y00353007D03*
Y00361007D03*
X01234002D03*
Y00353007D03*
Y00345007D03*
Y00337007D03*
Y00329007D03*
Y00321007D03*
Y00313007D03*
Y00305007D03*
G54D19*
X00995002Y00379507D03*
Y00408507D03*
X00970002Y00379507D03*
Y00408507D03*
X00945002Y00379507D03*
Y00408507D03*
X00918002Y00379507D03*
Y00408507D03*
X00893002Y00379507D03*
Y00408507D03*
X00868002Y00379507D03*
Y00408507D03*
X00893002Y00335507D03*
Y00364507D03*
X00918002Y00335507D03*
Y00364507D03*
X00868002Y00335507D03*
Y00364507D03*
G54D70*
X00970502Y00353007D03*
X00961002Y00333007D03*
X00980002D03*
X01123502Y00374007D03*
X01136502D03*
X01264502Y00307007D03*
X01251502D03*
G54D71*
X01021502Y00401707D03*
Y00376307D03*
X01078502D03*
Y00401707D03*
G54D20*
X01015752Y00287007D03*
X01034252D03*
G54D21*
X01171002Y00391757D03*
Y00410257D03*
X01262002Y00371257D03*
Y00352757D03*
G54D101*
X00862002Y00280507D03*
X00939002D03*
X00862001Y00299507D03*
X00939002D03*
G54D99*
X01515421Y00383579D03*
Y00396279D03*
X01452541D03*
Y00383579D03*
X01453541Y00366279D03*
Y00353579D03*
X01516421D03*
Y00366279D03*
G54D100*
X01476981Y00263929D03*
X01456981D03*
G54D12*
X01627981Y00432929D03*
Y00409929D03*
Y00386929D03*
X01550981Y00432929D03*
Y00409929D03*
Y00386929D03*
G54D14*
X01534481Y00434929D03*
X01501481D03*
G54D15*
X01442481Y00421429D03*
Y00440429D03*
X01462481Y00430929D03*
X01533981Y00348429D03*
Y00361429D03*
X01552981Y00354429D03*
Y00367429D03*
X01429981Y00396429D03*
Y00383429D03*
X01395981Y00423429D03*
Y00436429D03*
X01285981Y00374429D03*
Y00361429D03*
X01320981Y00292429D03*
Y00305429D03*
X01303981Y00292429D03*
Y00305429D03*
X01361981Y00292429D03*
Y00305429D03*
X01344981Y00292429D03*
Y00305429D03*
X01395981Y00292429D03*
Y00305429D03*
G54D17*
X01329981Y00408929D03*
X01337981D03*
X01345981D03*
X01353981D03*
X01361981D03*
X01369981D03*
X01377981D03*
X01385981D03*
Y00324929D03*
X01377981D03*
X01369981D03*
X01361981D03*
X01353981D03*
X01345981D03*
X01337981D03*
X01329981D03*
G54D18*
X01399981Y00394929D03*
Y00386929D03*
Y00378929D03*
Y00370929D03*
Y00362929D03*
Y00354929D03*
Y00346929D03*
Y00338929D03*
X01315981D03*
Y00346929D03*
Y00354929D03*
Y00362929D03*
Y00370929D03*
Y00378929D03*
Y00386929D03*
Y00394929D03*
G54D19*
X01554981Y00320429D03*
Y00291429D03*
X01579981Y00320429D03*
Y00291429D03*
X01604981Y00320429D03*
Y00291429D03*
X01631981Y00320429D03*
Y00291429D03*
X01656981Y00320429D03*
Y00291429D03*
X01681981Y00320429D03*
Y00291429D03*
X01656981Y00364429D03*
Y00335429D03*
X01631981Y00364429D03*
Y00335429D03*
X01681981Y00364429D03*
Y00335429D03*
G54D70*
X01579481Y00346929D03*
X01588981Y00366929D03*
X01569981D03*
X01426481Y00325929D03*
X01413481D03*
X01285481Y00392929D03*
X01298481D03*
G54D71*
X01528481Y00298229D03*
Y00323629D03*
X01471481D03*
Y00298229D03*
G54D20*
X01534231Y00412929D03*
X01515731D03*
G54D21*
X01378981Y00308179D03*
Y00289679D03*
X01287981Y00328679D03*
Y00347179D03*
G54D101*
X01687981Y00419429D03*
X01610981D03*
X01687982Y00400429D03*
X01610981D03*
G54D99*
X00184562Y00516357D03*
Y00503657D03*
X00247442D03*
Y00516357D03*
X00246442Y00533657D03*
Y00546357D03*
X00183562D03*
Y00533657D03*
G54D100*
X00223002Y00636007D03*
X00243002D03*
G54D12*
X00072002Y00467007D03*
Y00490007D03*
Y00513007D03*
X00149002Y00467007D03*
Y00490007D03*
Y00513007D03*
G54D14*
X00165502Y00465007D03*
X00198502D03*
G54D15*
X00257502Y00478507D03*
Y00459507D03*
X00237502Y00469007D03*
X00166002Y00551507D03*
Y00538507D03*
X00147002Y00545507D03*
Y00532507D03*
X00270002Y00503506D03*
Y00516507D03*
X00304002Y00476507D03*
Y00463507D03*
X00414002Y00525507D03*
Y00538507D03*
X00379002Y00607507D03*
Y00594507D03*
X00396002Y00607507D03*
Y00594507D03*
X00338002Y00607507D03*
Y00594507D03*
X00355002Y00607507D03*
Y00594507D03*
X00304002Y00607507D03*
Y00594507D03*
G54D17*
X00370002Y00491007D03*
X00362002D03*
X00354002D03*
X00346002D03*
X00338002D03*
X00330002D03*
X00322002D03*
X00314002D03*
Y00575006D03*
X00322002D03*
X00330002D03*
X00338002D03*
X00346002D03*
X00354002D03*
X00362002D03*
X00370002D03*
G54D18*
X00300002Y00505007D03*
Y00513007D03*
Y00521007D03*
Y00529007D03*
Y00537007D03*
Y00545007D03*
Y00553007D03*
Y00561007D03*
X00384002D03*
Y00553007D03*
Y00545007D03*
Y00537007D03*
Y00529007D03*
Y00521007D03*
Y00513007D03*
Y00505007D03*
G54D19*
X00145002Y00579507D03*
Y00608507D03*
X00120002Y00579507D03*
Y00608507D03*
X00095002Y00579507D03*
Y00608507D03*
X00068002Y00579507D03*
Y00608507D03*
X00043002Y00579507D03*
Y00608507D03*
X00018002Y00579507D03*
Y00608507D03*
X00043002Y00535507D03*
Y00564507D03*
X00068002Y00535507D03*
Y00564507D03*
X00018002Y00535507D03*
Y00564507D03*
G54D70*
X00120502Y00553007D03*
X00111002Y00533007D03*
X00130002D03*
X00273502Y00574006D03*
X00286502D03*
X00414502Y00507007D03*
X00401502D03*
G54D71*
X00171502Y00601707D03*
Y00576307D03*
X00228502D03*
Y00601707D03*
G54D20*
X00165752Y00487007D03*
X00184252D03*
G54D21*
X00321002Y00591757D03*
Y00610257D03*
X00412002Y00571257D03*
Y00552757D03*
G54D101*
X00012002Y00480507D03*
X00089002D03*
X00012001Y00499507D03*
X00089002D03*
G54D99*
X00665421Y00583579D03*
Y00596279D03*
X00602541D03*
Y00583579D03*
X00603541Y00566279D03*
Y00553579D03*
X00666421D03*
Y00566279D03*
G54D100*
X00626981Y00463929D03*
X00606981D03*
G54D12*
X00777981Y00632929D03*
Y00609929D03*
Y00586929D03*
X00700981Y00632929D03*
Y00609929D03*
Y00586929D03*
G54D14*
X00684481Y00634929D03*
X00651481D03*
G54D15*
X00592481Y00621429D03*
Y00640429D03*
X00683981Y00548429D03*
Y00561429D03*
X00702981Y00554429D03*
Y00567429D03*
X00579981Y00596429D03*
Y00583429D03*
X00545981Y00623429D03*
Y00636429D03*
X00435981Y00574429D03*
Y00561429D03*
X00470981Y00492429D03*
Y00505429D03*
X00453981Y00492429D03*
Y00505429D03*
X00511981Y00492429D03*
Y00505429D03*
X00494981Y00492429D03*
Y00505429D03*
X00545981Y00492429D03*
Y00505429D03*
G54D17*
X00479981Y00608929D03*
X00487981D03*
X00495981D03*
X00503981D03*
X00511981D03*
X00519981D03*
X00527981D03*
X00535981D03*
Y00524929D03*
X00527981D03*
X00519981D03*
X00511981D03*
X00503981D03*
X00495981D03*
X00487981D03*
X00479981D03*
G54D18*
X00549981Y00594929D03*
Y00586929D03*
Y00578929D03*
Y00570929D03*
Y00562929D03*
Y00554929D03*
Y00546929D03*
Y00538929D03*
X00465981D03*
Y00546929D03*
Y00554929D03*
Y00562929D03*
Y00570929D03*
Y00578929D03*
Y00586929D03*
Y00594929D03*
G54D19*
X00704981Y00520429D03*
Y00491429D03*
X00729981Y00520429D03*
Y00491429D03*
X00754981Y00520429D03*
Y00491429D03*
X00781981Y00520429D03*
Y00491429D03*
X00806981Y00520429D03*
Y00491429D03*
X00831981Y00520429D03*
Y00491429D03*
X00806981Y00564429D03*
Y00535429D03*
X00781981Y00564429D03*
Y00535429D03*
X00831981Y00564429D03*
Y00535429D03*
G54D70*
X00729481Y00546929D03*
X00738981Y00566929D03*
X00719981D03*
X00576481Y00525929D03*
X00563481D03*
X00435481Y00592929D03*
X00448481D03*
G54D71*
X00678481Y00498229D03*
Y00523629D03*
X00621481D03*
Y00498229D03*
G54D20*
X00684231Y00612929D03*
X00665731D03*
G54D21*
X00528981Y00508179D03*
Y00489679D03*
X00437981Y00528679D03*
Y00547179D03*
G54D101*
X00837981Y00619429D03*
X00760981D03*
X00837982Y00600429D03*
X00760981D03*
G54D99*
X01034562Y00516357D03*
Y00503657D03*
X01097442D03*
Y00516357D03*
X01096442Y00533657D03*
Y00546357D03*
X01033562D03*
Y00533657D03*
G54D100*
X01073002Y00636007D03*
X01093002D03*
G54D12*
X00922002Y00467007D03*
Y00490007D03*
Y00513007D03*
X00999002Y00467007D03*
Y00490007D03*
Y00513007D03*
G54D14*
X01015502Y00465007D03*
X01048502D03*
G54D15*
X01107502Y00478507D03*
Y00459507D03*
X01087502Y00469007D03*
X01016002Y00551507D03*
Y00538507D03*
X00997002Y00545507D03*
Y00532507D03*
X01120002Y00503506D03*
Y00516507D03*
X01154002Y00476507D03*
Y00463507D03*
X01264002Y00525507D03*
Y00538507D03*
X01229002Y00607507D03*
Y00594507D03*
X01246002Y00607507D03*
Y00594507D03*
X01188002Y00607507D03*
Y00594507D03*
X01205002Y00607507D03*
Y00594507D03*
X01154002Y00607507D03*
Y00594507D03*
G54D17*
X01220002Y00491007D03*
X01212002D03*
X01204002D03*
X01196002D03*
X01188002D03*
X01180002D03*
X01172002D03*
X01164002D03*
Y00575006D03*
X01172002D03*
X01180002D03*
X01188002D03*
X01196002D03*
X01204002D03*
X01212002D03*
X01220002D03*
G54D18*
X01150002Y00505007D03*
Y00513007D03*
Y00521007D03*
Y00529007D03*
Y00537007D03*
Y00545007D03*
Y00553007D03*
Y00561007D03*
X01234002D03*
Y00553007D03*
Y00545007D03*
Y00537007D03*
Y00529007D03*
Y00521007D03*
Y00513007D03*
Y00505007D03*
G54D19*
X00995002Y00579507D03*
Y00608507D03*
X00970002Y00579507D03*
Y00608507D03*
X00945002Y00579507D03*
Y00608507D03*
X00918002Y00579507D03*
Y00608507D03*
X00893002Y00579507D03*
Y00608507D03*
X00868002Y00579507D03*
Y00608507D03*
X00893002Y00535507D03*
Y00564507D03*
X00918002Y00535507D03*
Y00564507D03*
X00868002Y00535507D03*
Y00564507D03*
G54D70*
X00970502Y00553007D03*
X00961002Y00533007D03*
X00980002D03*
X01123502Y00574006D03*
X01136502D03*
X01264502Y00507007D03*
X01251502D03*
G54D71*
X01021502Y00601707D03*
Y00576307D03*
X01078502D03*
Y00601707D03*
G54D20*
X01015752Y00487007D03*
X01034252D03*
G54D21*
X01171002Y00591757D03*
Y00610257D03*
X01262002Y00571257D03*
Y00552757D03*
G54D101*
X00862002Y00480507D03*
X00939002D03*
X00862001Y00499507D03*
X00939002D03*
G54D99*
X01515421Y00583579D03*
Y00596279D03*
X01452541D03*
Y00583579D03*
X01453541Y00566279D03*
Y00553579D03*
X01516421D03*
Y00566279D03*
G54D100*
X01476981Y00463929D03*
X01456981D03*
G54D12*
X01627981Y00632929D03*
Y00609929D03*
Y00586929D03*
X01550981Y00632929D03*
Y00609929D03*
Y00586929D03*
G54D14*
X01534481Y00634929D03*
X01501481D03*
G54D15*
X01442481Y00621429D03*
Y00640429D03*
X01462481Y00630929D03*
X01533981Y00548429D03*
Y00561429D03*
X01552981Y00554429D03*
Y00567429D03*
X01429981Y00596429D03*
Y00583429D03*
X01395981Y00623429D03*
Y00636429D03*
X01285981Y00574429D03*
Y00561429D03*
X01320981Y00492429D03*
Y00505429D03*
X01303981Y00492429D03*
Y00505429D03*
X01361981Y00492429D03*
Y00505429D03*
X01344981Y00492429D03*
Y00505429D03*
X01395981Y00492429D03*
Y00505429D03*
G54D17*
X01329981Y00608929D03*
X01337981D03*
X01345981D03*
X01353981D03*
X01361981D03*
X01369981D03*
X01377981D03*
X01385981D03*
Y00524929D03*
X01377981D03*
X01369981D03*
X01361981D03*
X01353981D03*
X01345981D03*
X01337981D03*
X01329981D03*
G54D18*
X01399981Y00594929D03*
Y00586929D03*
Y00578929D03*
Y00570929D03*
Y00562929D03*
Y00554929D03*
Y00546929D03*
Y00538929D03*
X01315981D03*
Y00546929D03*
Y00554929D03*
Y00562929D03*
Y00570929D03*
Y00578929D03*
Y00586929D03*
Y00594929D03*
G54D19*
X01554981Y00520429D03*
Y00491429D03*
X01579981Y00520429D03*
Y00491429D03*
X01604981Y00520429D03*
Y00491429D03*
X01631981Y00520429D03*
Y00491429D03*
X01656981Y00520429D03*
Y00491429D03*
X01681981Y00520429D03*
Y00491429D03*
X01656981Y00564429D03*
Y00535429D03*
X01631981Y00564429D03*
Y00535429D03*
X01681981Y00564429D03*
Y00535429D03*
G54D70*
X01579481Y00546929D03*
X01588981Y00566929D03*
X01569981D03*
X01426481Y00525929D03*
X01413481D03*
X01285481Y00592929D03*
X01298481D03*
G54D71*
X01528481Y00498229D03*
Y00523629D03*
X01471481D03*
Y00498229D03*
G54D20*
X01534231Y00612929D03*
X01515731D03*
G54D21*
X01378981Y00508179D03*
Y00489679D03*
X01287981Y00528679D03*
Y00547179D03*
G54D101*
X01687981Y00619429D03*
X01610981D03*
X01687982Y00600429D03*
X01610981D03*
G54D99*
X00184562Y00716356D03*
Y00703656D03*
X00247442D03*
Y00716356D03*
X00246442Y00733656D03*
Y00746356D03*
X00183562D03*
Y00733656D03*
G54D100*
X00223002Y00836006D03*
X00243002D03*
G54D12*
X00072002Y00667007D03*
Y00690007D03*
Y00713006D03*
X00149002Y00667007D03*
Y00690007D03*
Y00713006D03*
G54D14*
X00165502Y00665007D03*
X00198502D03*
G54D15*
X00257502Y00678506D03*
Y00659506D03*
X00237502Y00669007D03*
X00166002Y00751507D03*
Y00738507D03*
X00147002Y00745507D03*
Y00732507D03*
X00270002Y00703506D03*
Y00716507D03*
X00304002Y00676506D03*
Y00663506D03*
X00414002Y00725507D03*
Y00738507D03*
X00379002Y00807506D03*
Y00794506D03*
X00396002Y00807506D03*
Y00794506D03*
X00338002Y00807506D03*
Y00794506D03*
X00355002Y00807506D03*
Y00794506D03*
X00304002Y00807506D03*
Y00794506D03*
G54D17*
X00370002Y00691007D03*
X00362002D03*
X00354002D03*
X00346002D03*
X00338002D03*
X00330002D03*
X00322002D03*
X00314002D03*
Y00775006D03*
X00322002D03*
X00330002D03*
X00338002D03*
X00346002D03*
X00354002D03*
X00362002D03*
X00370002D03*
G54D18*
X00300002Y00705006D03*
Y00713006D03*
Y00721006D03*
Y00729006D03*
Y00737006D03*
Y00745006D03*
Y00753006D03*
Y00761006D03*
X00384002D03*
Y00753006D03*
Y00745006D03*
Y00737006D03*
Y00729006D03*
Y00721006D03*
Y00713006D03*
Y00705006D03*
G54D19*
X00145002Y00779506D03*
Y00808506D03*
X00120002Y00779506D03*
Y00808506D03*
X00095002Y00779506D03*
Y00808506D03*
X00068002Y00779506D03*
Y00808506D03*
X00043002Y00779506D03*
Y00808506D03*
X00018002Y00779506D03*
Y00808506D03*
X00043002Y00735507D03*
Y00764506D03*
X00068002Y00735507D03*
Y00764506D03*
X00018002Y00735507D03*
Y00764506D03*
G54D70*
X00120502Y00753006D03*
X00111002Y00733006D03*
X00130002D03*
X00273502Y00774006D03*
X00286502D03*
X00414502Y00707006D03*
X00401502D03*
G54D71*
X00171502Y00801707D03*
Y00776307D03*
X00228502D03*
Y00801707D03*
G54D20*
X00165752Y00687007D03*
X00184252D03*
G54D21*
X00321002Y00791756D03*
Y00810256D03*
X00412002Y00771257D03*
Y00752756D03*
G54D101*
X00012002Y00680506D03*
X00089002D03*
X00012001Y00699506D03*
X00089002D03*
G54D99*
X00665421Y00783579D03*
Y00796279D03*
X00602541D03*
Y00783579D03*
X00603541Y00766279D03*
Y00753579D03*
X00666421D03*
Y00766279D03*
G54D100*
X00626981Y00663929D03*
X00606981D03*
G54D12*
X00777981Y00832929D03*
Y00809929D03*
Y00786929D03*
X00700981Y00832929D03*
Y00809929D03*
Y00786929D03*
G54D14*
X00684481Y00834929D03*
X00651481D03*
G54D15*
X00592481Y00821429D03*
Y00840429D03*
X00683981Y00748429D03*
Y00761429D03*
X00702981Y00754429D03*
Y00767429D03*
X00579981Y00796429D03*
Y00783429D03*
X00545981Y00823429D03*
Y00836429D03*
X00435981Y00774429D03*
Y00761429D03*
X00470981Y00692429D03*
Y00705429D03*
X00453981Y00692429D03*
Y00705429D03*
X00511981Y00692429D03*
Y00705429D03*
X00494981Y00692429D03*
Y00705429D03*
X00545981Y00692429D03*
Y00705429D03*
G54D17*
X00479981Y00808929D03*
X00487981D03*
X00495981D03*
X00503981D03*
X00511981D03*
X00519981D03*
X00527981D03*
X00535981D03*
Y00724929D03*
X00527981D03*
X00519981D03*
X00511981D03*
X00503981D03*
X00495981D03*
X00487981D03*
X00479981D03*
G54D18*
X00549981Y00794929D03*
Y00786929D03*
Y00778929D03*
Y00770929D03*
Y00762929D03*
Y00754929D03*
Y00746929D03*
Y00738929D03*
X00465981D03*
Y00746929D03*
Y00754929D03*
Y00762929D03*
Y00770929D03*
Y00778929D03*
Y00786929D03*
Y00794929D03*
G54D19*
X00704981Y00720429D03*
Y00691429D03*
X00729981Y00720429D03*
Y00691429D03*
X00754981Y00720429D03*
Y00691429D03*
X00781981Y00720429D03*
Y00691429D03*
X00806981Y00720429D03*
Y00691429D03*
X00831981Y00720429D03*
Y00691429D03*
X00806981Y00764429D03*
Y00735429D03*
X00781981Y00764429D03*
Y00735429D03*
X00831981Y00764429D03*
Y00735429D03*
G54D70*
X00729481Y00746929D03*
X00738981Y00766929D03*
X00719981D03*
X00576481Y00725929D03*
X00563481D03*
X00435481Y00792929D03*
X00448481D03*
G54D71*
X00678481Y00698229D03*
Y00723629D03*
X00621481D03*
Y00698229D03*
G54D20*
X00684231Y00812929D03*
X00665731D03*
G54D21*
X00528981Y00708179D03*
Y00689679D03*
X00437981Y00728679D03*
Y00747179D03*
G54D101*
X00837981Y00819429D03*
X00760981D03*
X00837982Y00800429D03*
X00760981D03*
G54D99*
X01034562Y00716356D03*
Y00703656D03*
X01097442D03*
Y00716356D03*
X01096442Y00733656D03*
Y00746356D03*
X01033562D03*
Y00733656D03*
G54D100*
X01073002Y00836006D03*
X01093002D03*
G54D12*
X00922002Y00667007D03*
Y00690007D03*
Y00713006D03*
X00999002Y00667007D03*
Y00690007D03*
Y00713006D03*
G54D14*
X01015502Y00665007D03*
X01048502D03*
G54D15*
X01107502Y00678506D03*
Y00659506D03*
X01087502Y00669007D03*
X01016002Y00751507D03*
Y00738507D03*
X00997002Y00745507D03*
Y00732507D03*
X01120002Y00703506D03*
Y00716507D03*
X01154002Y00676506D03*
Y00663506D03*
X01264002Y00725507D03*
Y00738507D03*
X01229002Y00807506D03*
Y00794506D03*
X01246002Y00807506D03*
Y00794506D03*
X01188002Y00807506D03*
Y00794506D03*
X01205002Y00807506D03*
Y00794506D03*
X01154002Y00807506D03*
Y00794506D03*
G54D17*
X01220002Y00691007D03*
X01212002D03*
X01204002D03*
X01196002D03*
X01188002D03*
X01180002D03*
X01172002D03*
X01164002D03*
Y00775006D03*
X01172002D03*
X01180002D03*
X01188002D03*
X01196002D03*
X01204002D03*
X01212002D03*
X01220002D03*
G54D18*
X01150002Y00705006D03*
Y00713006D03*
Y00721006D03*
Y00729006D03*
Y00737006D03*
Y00745006D03*
Y00753006D03*
Y00761006D03*
X01234002D03*
Y00753006D03*
Y00745006D03*
Y00737006D03*
Y00729006D03*
Y00721006D03*
Y00713006D03*
Y00705006D03*
G54D19*
X00995002Y00779506D03*
Y00808506D03*
X00970002Y00779506D03*
Y00808506D03*
X00945002Y00779506D03*
Y00808506D03*
X00918002Y00779506D03*
Y00808506D03*
X00893002Y00779506D03*
Y00808506D03*
X00868002Y00779506D03*
Y00808506D03*
X00893002Y00735507D03*
Y00764506D03*
X00918002Y00735507D03*
Y00764506D03*
X00868002Y00735507D03*
Y00764506D03*
G54D70*
X00970502Y00753006D03*
X00961002Y00733006D03*
X00980002D03*
X01123502Y00774006D03*
X01136502D03*
X01264502Y00707006D03*
X01251502D03*
G54D71*
X01021502Y00801707D03*
Y00776307D03*
X01078502D03*
Y00801707D03*
G54D20*
X01015752Y00687007D03*
X01034252D03*
G54D21*
X01171002Y00791756D03*
Y00810256D03*
X01262002Y00771257D03*
Y00752756D03*
G54D101*
X00862002Y00680506D03*
X00939002D03*
X00862001Y00699506D03*
X00939002D03*
G54D99*
X01515421Y00783579D03*
Y00796279D03*
X01452541D03*
Y00783579D03*
X01453541Y00766279D03*
Y00753579D03*
X01516421D03*
Y00766279D03*
G54D100*
X01476981Y00663929D03*
X01456981D03*
G54D12*
X01627981Y00832929D03*
Y00809929D03*
Y00786929D03*
X01550981Y00832929D03*
Y00809929D03*
Y00786929D03*
G54D14*
X01534481Y00834929D03*
X01501481D03*
G54D15*
X01442481Y00821429D03*
Y00840429D03*
X01462481Y00830929D03*
X01533981Y00748429D03*
Y00761429D03*
X01552981Y00754429D03*
Y00767429D03*
X01429981Y00796429D03*
Y00783429D03*
X01395981Y00823429D03*
Y00836429D03*
X01285981Y00774429D03*
Y00761429D03*
X01320981Y00692429D03*
Y00705429D03*
X01303981Y00692429D03*
Y00705429D03*
X01361981Y00692429D03*
Y00705429D03*
X01344981Y00692429D03*
Y00705429D03*
X01395981Y00692429D03*
Y00705429D03*
G54D17*
X01329981Y00808929D03*
X01337981D03*
X01345981D03*
X01353981D03*
X01361981D03*
X01369981D03*
X01377981D03*
X01385981D03*
Y00724929D03*
X01377981D03*
X01369981D03*
X01361981D03*
X01353981D03*
X01345981D03*
X01337981D03*
X01329981D03*
G54D18*
X01399981Y00794929D03*
Y00786929D03*
Y00778929D03*
Y00770929D03*
Y00762929D03*
Y00754929D03*
Y00746929D03*
Y00738929D03*
X01315981D03*
Y00746929D03*
Y00754929D03*
Y00762929D03*
Y00770929D03*
Y00778929D03*
Y00786929D03*
Y00794929D03*
G54D19*
X01554981Y00720429D03*
Y00691429D03*
X01579981Y00720429D03*
Y00691429D03*
X01604981Y00720429D03*
Y00691429D03*
X01631981Y00720429D03*
Y00691429D03*
X01656981Y00720429D03*
Y00691429D03*
X01681981Y00720429D03*
Y00691429D03*
X01656981Y00764429D03*
Y00735429D03*
X01631981Y00764429D03*
Y00735429D03*
X01681981Y00764429D03*
Y00735429D03*
G54D70*
X01579481Y00746929D03*
X01588981Y00766929D03*
X01569981D03*
X01426481Y00725929D03*
X01413481D03*
X01285481Y00792929D03*
X01298481D03*
G54D71*
X01528481Y00698229D03*
Y00723629D03*
X01471481D03*
Y00698229D03*
G54D20*
X01534231Y00812929D03*
X01515731D03*
G54D21*
X01378981Y00708179D03*
Y00689679D03*
X01287981Y00728679D03*
Y00747179D03*
G54D101*
X01687981Y00819429D03*
X01610981D03*
X01687982Y00800429D03*
X01610981D03*
G54D99*
X00184562Y00916356D03*
Y00903656D03*
X00247442D03*
Y00916356D03*
X00246442Y00933656D03*
Y00946356D03*
X00183562D03*
Y00933656D03*
G54D100*
X00223002Y01036006D03*
X00243002D03*
G54D12*
X00072002Y00867006D03*
Y00890006D03*
Y00913006D03*
X00149002Y00867006D03*
Y00890006D03*
Y00913006D03*
G54D14*
X00165502Y00865006D03*
X00198502D03*
G54D15*
X00257502Y00878506D03*
Y00859506D03*
X00237502Y00869006D03*
X00166002Y00951506D03*
Y00938506D03*
X00147002Y00945506D03*
Y00932506D03*
X00270002Y00903506D03*
Y00916506D03*
X00304002Y00876506D03*
Y00863506D03*
X00414002Y00925506D03*
Y00938506D03*
X00379002Y01007506D03*
Y00994506D03*
X00396002Y01007506D03*
Y00994506D03*
X00338002Y01007506D03*
Y00994506D03*
X00355002Y01007506D03*
Y00994506D03*
X00304002Y01007506D03*
Y00994506D03*
G54D17*
X00370002Y00891006D03*
X00362002D03*
X00354002D03*
X00346002D03*
X00338002D03*
X00330002D03*
X00322002D03*
X00314002D03*
Y00975006D03*
X00322002D03*
X00330002D03*
X00338002D03*
X00346002D03*
X00354002D03*
X00362002D03*
X00370002D03*
G54D18*
X00300002Y00905006D03*
Y00913006D03*
Y00921006D03*
Y00929006D03*
Y00937006D03*
Y00945006D03*
Y00953006D03*
Y00961006D03*
X00384002D03*
Y00953006D03*
Y00945006D03*
Y00937006D03*
Y00929006D03*
Y00921006D03*
Y00913006D03*
Y00905006D03*
G54D19*
X00145002Y00979506D03*
Y01008506D03*
X00120002Y00979506D03*
Y01008506D03*
X00095002Y00979506D03*
Y01008506D03*
X00068002Y00979506D03*
Y01008506D03*
X00043002Y00979506D03*
Y01008506D03*
X00018002Y00979506D03*
Y01008506D03*
X00043002Y00935506D03*
Y00964506D03*
X00068002Y00935506D03*
Y00964506D03*
X00018002Y00935506D03*
Y00964506D03*
G54D70*
X00120502Y00953006D03*
X00111002Y00933006D03*
X00130002D03*
X00273502Y00974006D03*
X00286502D03*
X00414502Y00907006D03*
X00401502D03*
G54D71*
X00171502Y01001706D03*
Y00976306D03*
X00228502D03*
Y01001706D03*
G54D20*
X00165752Y00887006D03*
X00184252D03*
G54D21*
X00321002Y00991756D03*
Y01010256D03*
X00412002Y00971256D03*
Y00952756D03*
G54D101*
X00012002Y00880506D03*
X00089002D03*
X00012001Y00899506D03*
X00089002D03*
G54D99*
X00665421Y00983578D03*
Y00996278D03*
X00602541D03*
Y00983578D03*
X00603541Y00966278D03*
Y00953578D03*
X00666421D03*
Y00966278D03*
G54D100*
X00626981Y00863928D03*
X00606981D03*
G54D12*
X00777981Y01032929D03*
Y01009929D03*
Y00986928D03*
X00700981Y01032929D03*
Y01009929D03*
Y00986928D03*
G54D14*
X00684481Y01034929D03*
X00651481D03*
G54D15*
X00592481Y01021428D03*
Y01040428D03*
X00683981Y00948429D03*
Y00961429D03*
X00702981Y00954429D03*
Y00967429D03*
X00579981Y00996429D03*
Y00983429D03*
X00545981Y01023428D03*
Y01036428D03*
X00435981Y00974429D03*
Y00961429D03*
X00470981Y00892429D03*
Y00905428D03*
X00453981Y00892429D03*
Y00905428D03*
X00511981Y00892429D03*
Y00905428D03*
X00494981Y00892429D03*
Y00905428D03*
X00545981Y00892429D03*
Y00905428D03*
G54D17*
X00479981Y01008928D03*
X00487981D03*
X00495981D03*
X00503981D03*
X00511981D03*
X00519981D03*
X00527981D03*
X00535981D03*
Y00924929D03*
X00527981D03*
X00519981D03*
X00511981D03*
X00503981D03*
X00495981D03*
X00487981D03*
X00479981D03*
G54D18*
X00549981Y00994928D03*
Y00986928D03*
Y00978928D03*
Y00970928D03*
Y00962928D03*
Y00954929D03*
Y00946929D03*
Y00938929D03*
X00465981D03*
Y00946929D03*
Y00954929D03*
Y00962928D03*
Y00970928D03*
Y00978928D03*
Y00986928D03*
Y00994928D03*
G54D19*
X00704981Y00920428D03*
Y00891429D03*
X00729981Y00920428D03*
Y00891429D03*
X00754981Y00920428D03*
Y00891429D03*
X00781981Y00920428D03*
Y00891429D03*
X00806981Y00920428D03*
Y00891429D03*
X00831981Y00920428D03*
Y00891429D03*
X00806981Y00964429D03*
Y00935428D03*
X00781981Y00964429D03*
Y00935428D03*
X00831981Y00964429D03*
Y00935428D03*
G54D70*
X00729481Y00946929D03*
X00738981Y00966928D03*
X00719981D03*
X00576481Y00925929D03*
X00563481D03*
X00435481Y00992928D03*
X00448481D03*
G54D71*
X00678481Y00898229D03*
Y00923629D03*
X00621481D03*
Y00898229D03*
G54D20*
X00684231Y01012929D03*
X00665731D03*
G54D21*
X00528981Y00908179D03*
Y00889678D03*
X00437981Y00928679D03*
Y00947178D03*
G54D101*
X00837981Y01019429D03*
X00760981D03*
X00837982Y01000429D03*
X00760981D03*
G54D99*
X01034562Y00916356D03*
Y00903656D03*
X01097442D03*
Y00916356D03*
X01096442Y00933656D03*
Y00946356D03*
X01033562D03*
Y00933656D03*
G54D100*
X01073002Y01036006D03*
X01093002D03*
G54D12*
X00922002Y00867006D03*
Y00890006D03*
Y00913006D03*
X00999002Y00867006D03*
Y00890006D03*
Y00913006D03*
G54D14*
X01015502Y00865006D03*
X01048502D03*
G54D15*
X01107502Y00878506D03*
Y00859506D03*
X01087502Y00869006D03*
X01016002Y00951506D03*
Y00938506D03*
X00997002Y00945506D03*
Y00932506D03*
X01120002Y00903506D03*
Y00916506D03*
X01154002Y00876506D03*
Y00863506D03*
X01264002Y00925506D03*
Y00938506D03*
X01229002Y01007506D03*
Y00994506D03*
X01246002Y01007506D03*
Y00994506D03*
X01188002Y01007506D03*
Y00994506D03*
X01205002Y01007506D03*
Y00994506D03*
X01154002Y01007506D03*
Y00994506D03*
G54D17*
X01220002Y00891006D03*
X01212002D03*
X01204002D03*
X01196002D03*
X01188002D03*
X01180002D03*
X01172002D03*
X01164002D03*
Y00975006D03*
X01172002D03*
X01180002D03*
X01188002D03*
X01196002D03*
X01204002D03*
X01212002D03*
X01220002D03*
G54D18*
X01150002Y00905006D03*
Y00913006D03*
Y00921006D03*
Y00929006D03*
Y00937006D03*
Y00945006D03*
Y00953006D03*
Y00961006D03*
X01234002D03*
Y00953006D03*
Y00945006D03*
Y00937006D03*
Y00929006D03*
Y00921006D03*
Y00913006D03*
Y00905006D03*
G54D19*
X00995002Y00979506D03*
Y01008506D03*
X00970002Y00979506D03*
Y01008506D03*
X00945002Y00979506D03*
Y01008506D03*
X00918002Y00979506D03*
Y01008506D03*
X00893002Y00979506D03*
Y01008506D03*
X00868002Y00979506D03*
Y01008506D03*
X00893002Y00935506D03*
Y00964506D03*
X00918002Y00935506D03*
Y00964506D03*
X00868002Y00935506D03*
Y00964506D03*
G54D70*
X00970502Y00953006D03*
X00961002Y00933006D03*
X00980002D03*
X01123502Y00974006D03*
X01136502D03*
X01264502Y00907006D03*
X01251502D03*
G54D71*
X01021502Y01001706D03*
Y00976306D03*
X01078502D03*
Y01001706D03*
G54D20*
X01015752Y00887006D03*
X01034252D03*
G54D21*
X01171002Y00991756D03*
Y01010256D03*
X01262002Y00971256D03*
Y00952756D03*
G54D101*
X00862002Y00880506D03*
X00939002D03*
X00862001Y00899506D03*
X00939002D03*
G54D99*
X01515421Y00983578D03*
Y00996278D03*
X01452541D03*
Y00983578D03*
X01453541Y00966278D03*
Y00953578D03*
X01516421D03*
Y00966278D03*
G54D100*
X01476981Y00863928D03*
X01456981D03*
G54D12*
X01627981Y01032929D03*
Y01009929D03*
Y00986928D03*
X01550981Y01032929D03*
Y01009929D03*
Y00986928D03*
G54D14*
X01534481Y01034929D03*
X01501481D03*
G54D15*
X01442481Y01021428D03*
Y01040428D03*
X01462481Y01030929D03*
X01533981Y00948429D03*
Y00961429D03*
X01552981Y00954429D03*
Y00967429D03*
X01429981Y00996429D03*
Y00983429D03*
X01395981Y01023428D03*
Y01036428D03*
X01285981Y00974429D03*
Y00961429D03*
X01320981Y00892429D03*
Y00905428D03*
X01303981Y00892429D03*
Y00905428D03*
X01361981Y00892429D03*
Y00905428D03*
X01344981Y00892429D03*
Y00905428D03*
X01395981Y00892429D03*
Y00905428D03*
G54D17*
X01329981Y01008928D03*
X01337981D03*
X01345981D03*
X01353981D03*
X01361981D03*
X01369981D03*
X01377981D03*
X01385981D03*
Y00924929D03*
X01377981D03*
X01369981D03*
X01361981D03*
X01353981D03*
X01345981D03*
X01337981D03*
X01329981D03*
G54D18*
X01399981Y00994928D03*
Y00986928D03*
Y00978928D03*
Y00970928D03*
Y00962928D03*
Y00954929D03*
Y00946929D03*
Y00938929D03*
X01315981D03*
Y00946929D03*
Y00954929D03*
Y00962928D03*
Y00970928D03*
Y00978928D03*
Y00986928D03*
Y00994928D03*
G54D19*
X01554981Y00920428D03*
Y00891429D03*
X01579981Y00920428D03*
Y00891429D03*
X01604981Y00920428D03*
Y00891429D03*
X01631981Y00920428D03*
Y00891429D03*
X01656981Y00920428D03*
Y00891429D03*
X01681981Y00920428D03*
Y00891429D03*
X01656981Y00964429D03*
Y00935428D03*
X01631981Y00964429D03*
Y00935428D03*
X01681981Y00964429D03*
Y00935428D03*
G54D70*
X01579481Y00946929D03*
X01588981Y00966928D03*
X01569981D03*
X01426481Y00925929D03*
X01413481D03*
X01285481Y00992928D03*
X01298481D03*
G54D71*
X01528481Y00898229D03*
Y00923629D03*
X01471481D03*
Y00898229D03*
G54D20*
X01534231Y01012929D03*
X01515731D03*
G54D21*
X01378981Y00908179D03*
Y00889678D03*
X01287981Y00928679D03*
Y00947178D03*
G54D101*
X01687981Y01019429D03*
X01610981D03*
X01687982Y01000429D03*
X01610981D03*
G54D99*
X00184562Y01116356D03*
Y01103656D03*
X00247442D03*
Y01116356D03*
X00246442Y01133656D03*
Y01146356D03*
X00183562D03*
Y01133656D03*
G54D100*
X00223002Y01236006D03*
X00243002D03*
G54D12*
X00072002Y01067006D03*
Y01090006D03*
Y01113006D03*
X00149002Y01067006D03*
Y01090006D03*
Y01113006D03*
G54D14*
X00165502Y01065006D03*
X00198502D03*
G54D15*
X00257502Y01078506D03*
Y01059506D03*
X00237502Y01069006D03*
X00166002Y01151506D03*
Y01138506D03*
X00147002Y01145506D03*
Y01132506D03*
X00270002Y01103506D03*
Y01116506D03*
X00304002Y01076506D03*
Y01063506D03*
X00414002Y01125506D03*
Y01138506D03*
X00379002Y01207506D03*
Y01194506D03*
X00396002Y01207506D03*
Y01194506D03*
X00338002Y01207506D03*
Y01194506D03*
X00355002Y01207506D03*
Y01194506D03*
X00304002Y01207506D03*
Y01194506D03*
G54D17*
X00370002Y01091006D03*
X00362002D03*
X00354002D03*
X00346002D03*
X00338002D03*
X00330002D03*
X00322002D03*
X00314002D03*
Y01175006D03*
X00322002D03*
X00330002D03*
X00338002D03*
X00346002D03*
X00354002D03*
X00362002D03*
X00370002D03*
G54D18*
X00300002Y01105006D03*
Y01113006D03*
Y01121006D03*
Y01129006D03*
Y01137006D03*
Y01145006D03*
Y01153006D03*
Y01161006D03*
X00384002D03*
Y01153006D03*
Y01145006D03*
Y01137006D03*
Y01129006D03*
Y01121006D03*
Y01113006D03*
Y01105006D03*
G54D19*
X00145002Y01179506D03*
Y01208506D03*
X00120002Y01179506D03*
Y01208506D03*
X00095002Y01179506D03*
Y01208506D03*
X00068002Y01179506D03*
Y01208506D03*
X00043002Y01179506D03*
Y01208506D03*
X00018002Y01179506D03*
Y01208506D03*
X00043002Y01135506D03*
Y01164506D03*
X00068002Y01135506D03*
Y01164506D03*
X00018002Y01135506D03*
Y01164506D03*
G54D70*
X00120502Y01153006D03*
X00111002Y01133006D03*
X00130002D03*
X00273502Y01174006D03*
X00286502D03*
X00414502Y01107006D03*
X00401502D03*
G54D71*
X00171502Y01201706D03*
Y01176306D03*
X00228502D03*
Y01201706D03*
G54D20*
X00165752Y01087006D03*
X00184252D03*
G54D21*
X00321002Y01191756D03*
Y01210256D03*
X00412002Y01171256D03*
Y01152756D03*
G54D101*
X00012002Y01080506D03*
X00089002D03*
X00012001Y01099506D03*
X00089002D03*
G54D99*
X00665421Y01183578D03*
Y01196278D03*
X00602541D03*
Y01183578D03*
X00603541Y01166278D03*
Y01153578D03*
X00666421D03*
Y01166278D03*
G54D100*
X00626981Y01063928D03*
X00606981D03*
G54D12*
X00777981Y01232928D03*
Y01209929D03*
Y01186928D03*
X00700981Y01232928D03*
Y01209929D03*
Y01186928D03*
G54D14*
X00684481Y01234928D03*
X00651481D03*
G54D15*
X00592481Y01221428D03*
Y01240428D03*
X00612481Y01230928D03*
X00683981Y01148428D03*
Y01161428D03*
X00702981Y01154428D03*
Y01167428D03*
X00579981Y01196428D03*
Y01183428D03*
X00545981Y01223428D03*
Y01236428D03*
X00435981Y01174428D03*
Y01161428D03*
X00470981Y01092428D03*
Y01105428D03*
X00453981Y01092428D03*
Y01105428D03*
X00511981Y01092428D03*
Y01105428D03*
X00494981Y01092428D03*
Y01105428D03*
X00545981Y01092428D03*
Y01105428D03*
G54D17*
X00479981Y01208928D03*
X00487981D03*
X00495981D03*
X00503981D03*
X00511981D03*
X00519981D03*
X00527981D03*
X00535981D03*
Y01124928D03*
X00527981D03*
X00519981D03*
X00511981D03*
X00503981D03*
X00495981D03*
X00487981D03*
X00479981D03*
G54D18*
X00549981Y01194928D03*
Y01186928D03*
Y01178928D03*
Y01170928D03*
Y01162928D03*
Y01154928D03*
Y01146928D03*
Y01138928D03*
X00465981D03*
Y01146928D03*
Y01154928D03*
Y01162928D03*
Y01170928D03*
Y01178928D03*
Y01186928D03*
Y01194928D03*
G54D19*
X00704981Y01120428D03*
Y01091428D03*
X00729981Y01120428D03*
Y01091428D03*
X00754981Y01120428D03*
Y01091428D03*
X00781981Y01120428D03*
Y01091428D03*
X00806981Y01120428D03*
Y01091428D03*
X00831981Y01120428D03*
Y01091428D03*
X00806981Y01164428D03*
Y01135428D03*
X00781981Y01164428D03*
Y01135428D03*
X00831981Y01164428D03*
Y01135428D03*
G54D70*
X00729481Y01146928D03*
X00738981Y01166928D03*
X00719981D03*
X00576481Y01125928D03*
X00563481D03*
X00435481Y01192928D03*
X00448481D03*
G54D71*
X00678481Y01098228D03*
Y01123628D03*
X00621481D03*
Y01098228D03*
G54D20*
X00684231Y01212928D03*
X00665731D03*
G54D21*
X00528981Y01108178D03*
Y01089678D03*
X00437981Y01128678D03*
Y01147178D03*
G54D101*
X00837981Y01219428D03*
X00760981D03*
X00837982Y01200428D03*
X00760981D03*
G54D99*
X01034562Y01116356D03*
Y01103656D03*
X01097442D03*
Y01116356D03*
X01096442Y01133656D03*
Y01146356D03*
X01033562D03*
Y01133656D03*
G54D100*
X01073002Y01236006D03*
X01093002D03*
G54D12*
X00922002Y01067006D03*
Y01090006D03*
Y01113006D03*
X00999002Y01067006D03*
Y01090006D03*
Y01113006D03*
G54D14*
X01015502Y01065006D03*
X01048502D03*
G54D15*
X01107502Y01078506D03*
Y01059506D03*
X01087502Y01069006D03*
X01016002Y01151506D03*
Y01138506D03*
X00997002Y01145506D03*
Y01132506D03*
X01120002Y01103506D03*
Y01116506D03*
X01154002Y01076506D03*
Y01063506D03*
X01264002Y01125506D03*
Y01138506D03*
X01229002Y01207506D03*
Y01194506D03*
X01246002Y01207506D03*
Y01194506D03*
X01188002Y01207506D03*
Y01194506D03*
X01205002Y01207506D03*
Y01194506D03*
X01154002Y01207506D03*
Y01194506D03*
G54D17*
X01220002Y01091006D03*
X01212002D03*
X01204002D03*
X01196002D03*
X01188002D03*
X01180002D03*
X01172002D03*
X01164002D03*
Y01175006D03*
X01172002D03*
X01180002D03*
X01188002D03*
X01196002D03*
X01204002D03*
X01212002D03*
X01220002D03*
G54D18*
X01150002Y01105006D03*
Y01113006D03*
Y01121006D03*
Y01129006D03*
Y01137006D03*
Y01145006D03*
Y01153006D03*
Y01161006D03*
X01234002D03*
Y01153006D03*
Y01145006D03*
Y01137006D03*
Y01129006D03*
Y01121006D03*
Y01113006D03*
Y01105006D03*
G54D19*
X00995002Y01179506D03*
Y01208506D03*
X00970002Y01179506D03*
Y01208506D03*
X00945002Y01179506D03*
Y01208506D03*
X00918002Y01179506D03*
Y01208506D03*
X00893002Y01179506D03*
Y01208506D03*
X00868002Y01179506D03*
Y01208506D03*
X00893002Y01135506D03*
Y01164506D03*
X00918002Y01135506D03*
Y01164506D03*
X00868002Y01135506D03*
Y01164506D03*
G54D70*
X00970502Y01153006D03*
X00961002Y01133006D03*
X00980002D03*
X01123502Y01174006D03*
X01136502D03*
X01264502Y01107006D03*
X01251502D03*
G54D71*
X01021502Y01201706D03*
Y01176306D03*
X01078502D03*
Y01201706D03*
G54D20*
X01015752Y01087006D03*
X01034252D03*
G54D21*
X01171002Y01191756D03*
Y01210256D03*
X01262002Y01171256D03*
Y01152756D03*
G54D101*
X00862002Y01080506D03*
X00939002D03*
X00862001Y01099506D03*
X00939002D03*
G54D99*
X01515421Y01183578D03*
Y01196278D03*
X01452541D03*
Y01183578D03*
X01453541Y01166278D03*
Y01153578D03*
X01516421D03*
Y01166278D03*
G54D100*
X01476981Y01063928D03*
X01456981D03*
G54D12*
X01627981Y01232928D03*
Y01209929D03*
Y01186928D03*
X01550981Y01232928D03*
Y01209929D03*
Y01186928D03*
G54D14*
X01534481Y01234928D03*
X01501481D03*
G54D15*
X01442481Y01221428D03*
Y01240428D03*
X01462481Y01230928D03*
X01533981Y01148428D03*
Y01161428D03*
X01552981Y01154428D03*
Y01167428D03*
X01429981Y01196428D03*
Y01183428D03*
X01395981Y01223428D03*
Y01236428D03*
X01285981Y01174428D03*
Y01161428D03*
X01320981Y01092428D03*
Y01105428D03*
X01303981Y01092428D03*
Y01105428D03*
X01361981Y01092428D03*
Y01105428D03*
X01344981Y01092428D03*
Y01105428D03*
X01395981Y01092428D03*
Y01105428D03*
G54D17*
X01329981Y01208928D03*
X01337981D03*
X01345981D03*
X01353981D03*
X01361981D03*
X01369981D03*
X01377981D03*
X01385981D03*
Y01124928D03*
X01377981D03*
X01369981D03*
X01361981D03*
X01353981D03*
X01345981D03*
X01337981D03*
X01329981D03*
G54D18*
X01399981Y01194928D03*
Y01186928D03*
Y01178928D03*
Y01170928D03*
Y01162928D03*
Y01154928D03*
Y01146928D03*
Y01138928D03*
X01315981D03*
Y01146928D03*
Y01154928D03*
Y01162928D03*
Y01170928D03*
Y01178928D03*
Y01186928D03*
Y01194928D03*
G54D19*
X01554981Y01120428D03*
Y01091428D03*
X01579981Y01120428D03*
Y01091428D03*
X01604981Y01120428D03*
Y01091428D03*
X01631981Y01120428D03*
Y01091428D03*
X01656981Y01120428D03*
Y01091428D03*
X01681981Y01120428D03*
Y01091428D03*
X01656981Y01164428D03*
Y01135428D03*
X01631981Y01164428D03*
Y01135428D03*
X01681981Y01164428D03*
Y01135428D03*
G54D70*
X01579481Y01146928D03*
X01588981Y01166928D03*
X01569981D03*
X01426481Y01125928D03*
X01413481D03*
X01285481Y01192928D03*
X01298481D03*
G54D71*
X01528481Y01098228D03*
Y01123628D03*
X01471481D03*
Y01098228D03*
G54D20*
X01534231Y01212928D03*
X01515731D03*
G54D21*
X01378981Y01108178D03*
Y01089678D03*
X01287981Y01128678D03*
Y01147178D03*
G54D101*
X01687981Y01219428D03*
X01610981D03*
X01687982Y01200428D03*
X01610981D03*
G54D15*
X00612481Y01030929D03*
Y00430929D03*
Y00630929D03*
Y00830929D03*
M02*