%FSDAX44Y44*%
%MOMM*%
%SFA1B1*%

%IPPOS*%
%ADD16C,0.999998*%
%LNreper-1*%
%LPD*%
G54D16*
X00092002Y01152006D03*
X00276002Y01203006D03*
X00388002Y01090006D03*
X00092002Y00952006D03*
X00276002Y01003006D03*
X00388002Y00890006D03*
X00092002Y00752006D03*
X00276002Y00803007D03*
X00388002Y00690007D03*
X00092002Y00552007D03*
X00276002Y00603007D03*
X00388002Y00490007D03*
X00092002Y00352007D03*
X00276002Y00403007D03*
X00388002Y00290007D03*
X00092002Y00152007D03*
X00276002Y00203007D03*
X00388002Y00090007D03*
X00461981Y00209929D03*
X00573981Y00096929D03*
X00757981Y00147929D03*
X00573981Y00296929D03*
X00461981Y00409929D03*
X00757981Y00347929D03*
X00573981Y00496929D03*
X00461981Y00609929D03*
X00757981Y00547929D03*
X00461981Y00809929D03*
X00573981Y00696929D03*
X00757981Y00747929D03*
X00461981Y01009929D03*
X00573981Y00896929D03*
X00757981Y00947929D03*
X00461981Y01209929D03*
X00573981Y01096928D03*
X00757981Y01147928D03*
X00942002Y01152006D03*
X01126002Y01203006D03*
X01238002Y01090006D03*
X00942002Y00952006D03*
X01126002Y01003006D03*
X01238002Y00890006D03*
X00942002Y00752006D03*
X01126002Y00803007D03*
X01238002Y00690007D03*
X00942002Y00552007D03*
X01126002Y00603007D03*
X01238002Y00490007D03*
X00942002Y00352007D03*
X01126002Y00403007D03*
X01238002Y00290007D03*
X00942002Y00152007D03*
X01126002Y00203007D03*
X01238002Y00090007D03*
X01311981Y00209929D03*
X01423981Y00096929D03*
X01607981Y00147929D03*
X01311981Y00409929D03*
X01423981Y00296929D03*
X01607981Y00347929D03*
X01311981Y00609929D03*
X01423981Y00496929D03*
X01607981Y00547929D03*
X01311981Y00809929D03*
X01423981Y00696929D03*
X01607981Y00747929D03*
X01311981Y01009929D03*
X01423981Y00896929D03*
X01607981Y00947929D03*
X01311981Y01209929D03*
X01423981Y01096928D03*
X01607981Y01147928D03*
M02*